!1 Welcome to [[FitNesse][FitNesse.FitNesse]]!
!3 ''The fully integrated stand-alone acceptance testing framework and wiki.''
----

!2 [[PLUS Retail Testautomation Essentials][TestSuite]]


----
|'''To Learn More...'''                                                                                                   |
|[[Fixture Documentation][HsacExamples]]                       |''Information on Hsac Fixtures bundled with this project''|
|[[User Guide][.FitNesse.UserGuide]]                           |''Answer the rest of your questions here.''               |
|[[A Two-Minute Example][.FitNesse.UserGuide.TwoMinuteExample]]|''A brief example. Read this one next.''                  |
|[[Acceptance Tests][.FitNesse.SuiteAcceptanceTests]]          |''FitNesse's suite of Acceptance Tests''                  |
|[[Release Notes][.FitNesse.ReleaseNotes]]                     |''Find out about FitNesse's new features''                |

!note Release ${FITNESSE_VERSION}
